{
  "source": {
    "href": "./data/Brno/gservice.json"
  },
  "gdal": {},
  "crosswalk": {
    "id": { "property": "ogc_fid" },
    "taxonLatin": { "property": "nazev_lat" },
    "taxonCzech": { "property": "nazev_cz" },
    "hasWateringHole": { "property": "zalevaci_misto" },
    "ownerName": { "property": "spravce" },
    "cityName": { "constant": "Brno" }
  }
}
