{
  "source": {
    "href": "./data/Litomysl/shp230.zip",
    "process": [ { "unzip": true } ],
    "file": "shp230/ps_zelen_stromy16_gs_pnt.shp"
  },
  "gdal": {
    "args": [ "-oo", "ENCODING=windows-1250", "-s_srs", "EPSG:5514", "-t_srs", "EPSG:4326" ]
  },
  "crosswalk": {
    "id": { "property": "ID" },
    "taxonCzech": { "property": "TAXON_CZ" },
    "ownerName": { "constant": "Město Litomyšl" },
    "ownerId": { "constant": "litomysl" },
    "cityName": { "constant": "Litomyšl" }
  }
}
