{
  "source": {
    "href": "./data/Tisnov/export.zip",
    "process": [ { "unzip": true } ],
    "file": "trees.shp"
  },
  "gdal": {},
  "crosswalk": {
    "id": { "property": "DBOBJ_SID" },
    "taxonLatin": { "property": "SPECIES" },
    "height": { "property": "HEIGHT" },
    "crownDiameter": { "property": "SPREAD" },
    "detailedLocation": { "property": "SITE" },
    "note": { "property": "NOTE" },
    "ownerName": { "constant": "Město Tišnov" },
    "ownerId": { "constant": "tisnov" },
    "cityName": { "constant": "Tišnov" }
  }
}
