{
  "source": {
    "href": "https://opendata.arcgis.com/datasets/05c3f9d7dea6422b86e30967811bddd7_0.zip",
    "process": [ { "unzip": true} ],
    "file": "Baum_Berlin.shp"
  },
  "gdal": {},
  "crosswalk": {
    "id": { "property": "OBJECTID" },
    "ownerName": { "property": "Eigentueme" },
    "cityName": { "constant": "Berlín" },
    "districtName": { "property": "BEZIRK" },
    "taxonLatin": { "property": "Art_Bot" },
    "detailedLocation": { "property": "StrName" },
    "height": { "property": "BaumHoehe" },
    "crownDiameter": { "property": "KroneDurch" }
  }
}
