{
  "source": {
    "href": "https://www.data.gouv.fr/en/datasets/r/c558ddb2-cc46-4e26-b96a-bd2735a8f343"
  },
  "gdal": {},
  "crosswalk": {
    "id": { "property": "idemplacement" },
    "ownerName": { "constant": "Paris" },
    "cityName": { "constant": "Paris" },
    "districtName": { "property": "arrondissement" },
    "taxonLatin": { "property": [ "genre", "espece" ] },
    "crownDiameter": { "property": "circonferenceencm", "circumference2diameter": true },
    "height": { "property": "hauteurenm" },
    "detailedLocation": { "property": "adresse" }
  }
}
